{
  "name": "vuexy-vuejs-react-html-laravel-admin-dashboard-template",
  "version": "6.2.0",
  "private": true,
  "scripts": {
    "serve": "vue-cli-service serve",
    "build": "vue-cli-service build",
    "lint": "vue-cli-service lint"
  },
  "dependencies": {
    "@casl/ability": "4.1.6",
    "@casl/vue": "1.1.1",
    "@fortawesome/fontawesome-svg-core": "^1.2.34",
    "@fortawesome/free-brands-svg-icons": "^5.15.2",
    "@fortawesome/free-regular-svg-icons": "^5.15.2",
    "@fortawesome/free-solid-svg-icons": "^5.15.2",
    "@fortawesome/vue-fontawesome": "^2.0.2",
    "@fullcalendar/daygrid": "5.5.0",
    "@fullcalendar/interaction": "5.5.0",
    "@fullcalendar/list": "5.5.0",
    "@fullcalendar/timegrid": "5.5.0",
    "@fullcalendar/vue": "5.5.0",
    "@ssthouse/vue-tree-chart": "^0.4.0",
    "@vue/composition-api": "1.0.0-beta.22",
    "@vueuse/core": "4.0.0",
    "animate.css": "4.1.1",
    "apexcharts": "3.23.0",
    "axios": "0.21.1",
    "axios-mock-adapter": "1.19.0",
    "bootstrap": "4.5.2",
    "bootstrap-vue": "2.21.1",
    "chart.js": "2.9.4",
    "core-js": "3.8.1",
    "echarts": "4.8.0",
    "file-saver": "^2.0.5",
    "flatpickr": "^4.6.9",
    "jsonwebtoken": "8.5.1",
    "leaflet": "1.6.0",
    "moment": "^2.29.1",
    "portal-vue": "2.1.7",
    "postcss-rtl": "1.7.3",
    "prismjs": "1.19.0",
    "swiper": "5.4.5",
    "uuid": "8.3.2",
    "vee-validate": "3.4.5",
    "vue": "2.6.12",
    "vue-apexcharts": "1.6.0",
    "vue-autosuggest": "2.2.0",
    "vue-awesome-swiper": "4.1.1",
    "vue-blockui": "^1.1.7",
    "vue-chartjs": "3.5.0",
    "vue-cleave-component": "2.1.3",
    "vue-clipboard2": "0.3.1",
    "vue-context": "6.0.0",
    "vue-echarts": "5.0.0-beta.0",
    "vue-feather-icons": "5.1.0",
    "vue-flatpickr-component": "8.1.6",
    "vue-form-wizard": "0.8.4",
    "vue-good-table": "2.21.0",
    "vue-i18n": "8.22.2",
    "vue-perfect-scrollbar": "0.2.1",
    "vue-prism-component": "1.1.1",
    "vue-quill-editor": "3.0.6",
    "vue-ripple-directive": "2.0.1",
    "vue-router": "3.4.9",
    "vue-select": "3.11.2",
    "vue-slider-component": "3.2.11",
    "vue-sweetalert-icons": "^4.3.0",
    "vue-sweetalert2": "4.1.1",
    "vue-toastification": "1.7.8",
    "vue-tour": "1.5.0",
    "vue-tree-halower": "1.8.3",
    "vue2-leaflet": "2.5.2",
    "vuedraggable": "2.24.3",
    "vuex": "3.6.0"
  },
  "devDependencies": {
    "@vue/cli-plugin-babel": "~4.5.9",
    "@vue/cli-plugin-eslint": "~4.5.9",
    "@vue/cli-plugin-router": "~4.5.9",
    "@vue/cli-plugin-vuex": "~4.5.9",
    "@vue/cli-service": "~4.5.9",
    "@vue/eslint-config-airbnb": "^5.3.0",
    "@vuepress/plugin-medium-zoom": "^1.7.1",
    "babel-eslint": "^10.0.3",
    "eslint": "6.8.0",
    "eslint-plugin-import": "^2.22.1",
    "eslint-plugin-vue": "6.2.2",
    "sass": "^1.30.0",
    "sass-loader": "^10.1.0",
    "script-loader": "^0.7.2",
    "vue-template-compiler": "^2.6.11"
  }
}
